C:\Neyomal\Development\Selenium\Eclipse_Workspace\RestAssuredWeatherAPIAutomation\src\test\java\Services\WeatherServices.java
C:\Neyomal\Development\Selenium\Eclipse_Workspace\RestAssuredWeatherAPIAutomation\src\test\java\tests\WeatherTest.java
C:\Neyomal\Development\Selenium\Eclipse_Workspace\RestAssuredWeatherAPIAutomation\src\test\java\Services\NetworkCalls.java
C:\Neyomal\Development\Selenium\Eclipse_Workspace\RestAssuredWeatherAPIAutomation\src\test\java\util\APIException.java
C:\Neyomal\Development\Selenium\Eclipse_Workspace\RestAssuredWeatherAPIAutomation\src\test\java\util\Common.java
C:\Neyomal\Development\Selenium\Eclipse_Workspace\RestAssuredWeatherAPIAutomation\src\test\java\dataprovider\DataproviderClass.java
C:\Neyomal\Development\Selenium\Eclipse_Workspace\RestAssuredWeatherAPIAutomation\src\test\java\util\GenerateReport.java
C:\Neyomal\Development\Selenium\Eclipse_Workspace\RestAssuredWeatherAPIAutomation\src\test\java\util\ListenersAPITest.java
